9780697385949
International Politics on the World stage
7
Rourke, John
$1.00
9780314096357
Nutrition Concepts and Controversies
7
Sizer, Frances
$1.00
9780697385949
International Politics on the World stage
7
Rourke, John
$1.00
9780130953919
Sociology
7
Macionis, John
$1.00
9780415111201
Akehurst's Modern Introduction to International Law
7
Malanczuk, Peter
$1.00
9780130867582
Countries and Concepts: Politics, Geography, Culture
7
Roskin, Michael
$1.00
9780697385949
International Politics on the World stage
7
Rourke, John
$1.00
9780072413878
Social Psychology
7
Myers, David
$1.00
9780393977073
American Government: Power and Purpose
7
Lowi, Theodore
$1.00
9780393977073
American Government: Power and Purpose
7
Lowi, Theodore
$1.00
9780131945234
Cultural Anthropology
7
Ember, 
$1.00
9780072413878
Social Psychology
7
Myers, David
$1.00
9780534528669
Sociology
7
Stark, Rodney.
$1.00
9780534597337
Psychology applied to modern life
7
Weiten, Wayne.
$1.00
9780618086108
En Bonne Forme: Cassette Program
7
, 
$1.00
9780716758501
Psychology
7
Meyers, David G.
$1.00
9780618012411
En Bonne Forme
7
Dietiker, Simone
$1.00
9780471429593
Fundamentals of Physics
7
Halliday, David
$1.00
9780471429593
Fundamentals of Physics
7
Halliday, David
$1.00
9780312255695
Models for writers :short essays for composition
7
, 
$1.00
9780471429593
Fundamentals of Physics
7
Halliday, David
$39.00
9780471429609
Fundamentals of Physics
7
Halliday, 
$1.00
9780618012411
En Bonne Forme
7
Dietiker, Simone
$50.00
9780534491246
Statistics for management and economics
7th. ed.
Keller, Gerald.
$45.00
9780805371468
Biology
7
Campbell, 
$60.00
9780534491246
Statistics for management and economics
7th. ed.
Keller, Gerald.
$78.00
9780471429630
Fundamentals of physics
7
Halliday, David
$1.00
9780471429647
Fundamentals of physics
7
Halliday, David
$1.00
9780321095176
Style: Ten Lessons in Clarity and Grace
7
Williams, Joseph
$1.00
9788178086132
Probability & Statistics for Engineers and Scientists
7
Walpole, 
$1.00
9780471429616
Fundamentals of physics.
7th ed. /
Halliday, David
$1.00
9780471429630
Fundamentals of physics
7
Halliday, David
$1.00
9780471429647
Fundamentals of physics
7
Halliday, David
$1.00
9780471322030
Mathematics :an applied approach
7th ed.
Mizrahi, Abe.
$10.00
9780393927047
Storm center :
7th ed.
O'Brien, David M.
$10.00
9780805371468
Biology
7
Campbell, 
$90.00
9780393927047
Storm center :
7th ed.
O'Brien, David M.
$12.00
9780495390916
Sociology :
7th ed.
Ferrante-Wallace, Joan
$65.00
9780072413878
Social Psychology
7
Myers, David
$1.00
9780131442856
Study Guide: Principles of Microeconomics
7
Baeveridge, Thomas
$45.00
9780073302089
Prescott, Harley, and Klein's microbiology
7
Willey, Joanne M.
$80.00
9780393927429
The Norton anthology of American literature
7th ed.
, 
$25.00
9780393927412
The Norton anthology of American literature
7th ed.
, 
$25.00
9780073011219
Accounting: What the Numbers Mean
7
Marshall, David H.
$60.00
9780073302089
Prescott, Harley, and Klein's microbiology
7
Willey, Joanne M.
$90.00
9780495390916
Sociology :
7th ed.
Ferrante-Wallace, Joan
$60.00
9780618761272
Macroeconomics
7th ed.
Boyes, William
$50.00
9780205523122
Human Sexuality In A World of Diversity
7
Rathus, 
$45.00
9780716761488
Race, class, and gender in the United States :
7th ed.
Rothenberg, Paula
$30.00
9780534558109
Sensation and perception
7
Goldstein, E. Bruce.
$60.00
9780803618343
Nursing diagnoses in psychiatric nursing : care plans and psychotropic medications
7th ed.
Townsend, Mary C.
$15.00
9780471663164
Physics
7
Cutnell, 
$56.00
9780073343662
Macroeconomics
7th ed.
Colander, David C.
$70.00
9780618761272
Macroeconomics
7th ed.
Boyes, William
$30.00
9780534558109
Sensation and perception
7
Goldstein, E. Bruce.
$75.00
9780471663249
Physics
7
Cutnell, John D.
$110.00
9780534558109
Sensation and perception
7
Goldstein, E. Bruce.
$85.00
9780618761272
Macroeconomics
7th ed.
Boyes, William
$40.00
9780471663249
Physics
7
Cutnell, John D.
$55.00
9780534558109
Sensation and perception
7
Goldstein, E. Bruce.
$75.00
9780471663164
Physics
7
Cutnell, 
$69.00
9780471663249
Physics
7
Cutnell, John D.
$69.00
9780495031796
Visual Lab manual with CD for Senesation & Perception
7
Proctor, 
$9.00
9780618761272
Macroeconomics
7th ed.
Boyes, William
$60.00
9780618831920
Macroeconomics Study Guide
7
Clark, James E.
$20.00
9780618761272
Macroeconomics
7th ed.
Boyes, William
$45.00
9780073528052
Sociology :
7th ed.
Schaefer, Richard T.
$1.00
9780618761272
Macroeconomics
7th ed.
Boyes, William
$45.00
9780130859556
The human challenge
7
Tucker, Mary L.
$74.00
9780534558109
Sensation and perception
7
Goldstein, E. Bruce.
$75.00
9780534553975
Mechanics of materials.
7th ed. /
Gere, James M.
$90.00
9780716761488
Race, class, and gender in the United States :
7th ed.
Rothenberg, Paula
$15.00
9780136147060
Calculus: Early Transcendentals Student Solutions Manual
7
Edwards, 
$1.00
9780072873948
Puntos de partida :an invitation to Spanish
7
Knorre, Marty
$89.00
9780618761272
Macroeconomics
7th ed.
Boyes, William
$35.00
9780534558109
Sensation and perception
7
Goldstein, E. Bruce.
$50.00
9780321554185
World of the Cell International Edition
7
Becker, 
$85.00
9780136042587
Introduction to Java Programming
7th
Liang, Y. Daniel
$50.00
9780471663164
Physics
7
Cutnell, 
$50.00
9780471663249
Physics
7
Cutnell, John D.
$50.00
9780495438076
Mechanics of Materials
7
Gere, James
$65.00
9780136147060
Calculus: Early Transcendentals Student Solutions Manual
7
Edwards, 
$1.00
9780321095176
Style: Ten Lessons in Clarity and Grace
7
Williams, Joseph
$8.00
9780132256193
Calculus: Early Transcendentals, Instructor's Edition
7
Edwards, 
$1.00
9780205683246
Human Sexuality: In a world of diversity
7
Rathus, Spencer
$50.00
9780136042587
Introduction to Java Programming
7th
Liang, Y. Daniel
$70.00
9780205523122
Human Sexuality In A World of Diversity
7
Rathus, 
$69.00
9780131569898
Calculus : Early Transcendentals
7th ed.
Edwards, C. H.
$1.00
9780471663164
Physics
7
Cutnell, 
$69.00
9780205523122
Human Sexuality In A World of Diversity
7
Rathus, 
$65.00
9780132256193
Calculus: Early Transcendentals, Instructor's Edition
7
Edwards, 
$1.00
9780471736967
Materials Science and Engineering: An Introduction
7
Callister, 
$100.00
9780077211660
Contemporary Nutrition
7
Wardlaw, Gordon
$105.00
9780136042587
Introduction to Java Programming
7th
Liang, Y. Daniel
$50.00
9780471736967
Materials Science and Engineering: An Introduction
7
Callister, 
$90.00
9780136147060
Calculus: Early Transcendentals Student Solutions Manual
7
Edwards, 
$1.00
9780131569898
Calculus : Early Transcendentals
7th ed.
Edwards, C. H.
$1.00
9780136147060
Calculus: Early Transcendentals Student Solutions Manual
7
Edwards, 
$1.00
9780471736967
Materials Science and Engineering: An Introduction
7
Callister, 
$90.00
9780131569898
Calculus : Early Transcendentals
7th ed.
Edwards, C. H.
$1.00
9780618761272
Macroeconomics
7th ed.
Boyes, William
$40.00
9780205683246
Human Sexuality: In a world of diversity
7
Rathus, Spencer
$60.00
9780205532919
Human Sexuality In A World of Diversity
7
Rathus, 
$55.00
9780495807063
Health Psychology
7th
Brannon, Linda
$50.00
9780205308408
Physiology of Behavior
7
Carlson, Neil
$30.00
9780321598714
Organic Chemistry: Solution Manual
7
Simek, Jan
$70.00
9780321554185
World of the Cell International Edition
7
Becker, 
$70.00
9780470281734
Textbook of Biochemistry with Clinical Correlations
7
Devlin, Thomas
$150.00
9780495601326
Health Psychology: An introduction to Behavior and Health
7
Brannon, Linda
$90.00
9780073134291
Fundamentals of Corporate Finance
7
Ross, 
$80.00
9780321592316
Organic Chemistry
7
Wade, L.G
$110.00
9780130859556
The human challenge
7
Tucker, Mary L.
$20.00
9780470281734
Textbook of Biochemistry with Clinical Correlations
7
Devlin, Thomas
$120.00
9780073129099
Psychological Testing and Assessment
7th
Cohen, Ronald
$20.00
9780470281734
Textbook of Biochemistry with Clinical Correlations
7
Devlin, Thomas
$115.00
9780805393934
The world of the cell
7th ed.
Becker, Wayne
$55.00
9780321527479
Solutions Manual to The World of the Cell
7
, Becker
$15.00
9780136042587
Introduction to Java Programming
7th
Liang, Y. Daniel
$60.00
9780534553975
Mechanics of materials.
7th ed. /
Gere, James M.
$50.00
9780321598714
Organic Chemistry: Solution Manual
7
Simek, Jan
$60.00
9781111831561
Sociology: The Essentials
7
, 
$60.00
9780136042587
Introduction to Java Programming
7th
Liang, Y. Daniel
$10.00
9780805393934
The world of the cell
7th ed.
Becker, Wayne
$45.00
9780321527479
Solutions Manual to The World of the Cell
7
, Becker
$1.00
9780321610065
Organic Chemistry
7
Wade, 
$60.00
9780495438076
Mechanics of Materials
7
Gere, James
$90.00
9780534553975
Mechanics of materials.
7th ed. /
Gere, James M.
$80.00
9780805393934
The world of the cell
7th ed.
Becker, Wayne
$45.00
9780077211660
Contemporary Nutrition
7
Wardlaw, Gordon
$40.00
9780130859556
The human challenge
7
Tucker, Mary L.
$50.00
9780077211660
Contemporary Nutrition
7
Wardlaw, Gordon
$50.00
9780135118726
Educational Psychology: Developing Learners
7
Ormrod, Jeanne
$100.00
9780618954797
Neue Horizonte
7
Dollenmayer, 
$40.00
9780618953905
Neue Horizonte
7
Dollenmayer, David
$40.00
9780618954797
Neue Horizonte
7
Dollenmayer, 
$60.00
9780073383095
Discrete Mathematics and its Applications
7
Rosen, Kenneth
$120.00
9780534553975
Mechanics of materials.
7th ed. /
Gere, James M.
$80.00
9780495390916
Sociology :
7th ed.
Ferrante-Wallace, Joan
$1.00
9780805393934
The world of the cell
7th ed.
Becker, Wayne
$50.00
9780130415295
Probability & statistics for engineers & scientists
7
Walpole, 
$70.00
9780618086108
En Bonne Forme: Cassette Program
7
, 
$1.00
9781608317998
Henke's Med-Math: Dosage Calculation, Preparation & Administration
7th
Buchholz, Susan 
$23.00
9780618086108
En Bonne Forme: Cassette Program
7
, 
$1.00
9780618086108
En Bonne Forme: Cassette Program
7
, 
$1.00
9780131442832
Principles of microeconomics
7
Case, Karl E.
$1.00
9780131442856
Study Guide: Principles of Microeconomics
7
Baeveridge, Thomas
$1.00
9780077353506
Discrete Mathematics and Its Applications Student's Solutions Cuide
7
Grossman, Jerrold
$25.00
9780495567448
Communication between cultures
7
Samovar, Larry
$30.00
9780073385372
Aproximaciones: Al estudio de la literatura hispanica
7
Friedman, Edward
$5.00
9780321527479
Solutions Manual to The World of the Cell
7
, Becker
$10.00
9780321527479
Solutions Manual to The World of the Cell
7
, Becker
$10.00
9780393966879
The Norton Scores: A Study Anthology Vol 2
7
Forney, Editor, 
$1.00
9780393966886
The Norton Scores, A Study Anthology
7
Forney, Kristine
$1.00
9780256235289
Human Resource Management
7
Ivancevich, John
$1.00
9780256235289
Human Resource Management
7
Ivancevich, John
$1.00
9780538875936
Statistics for Business and Economics
7
Anderson, David
$1.00
9780697385949
International Politics on the World stage
7
Rourke, John
$1.00
9780130984722
Construction Project Administration
7
Fisk, Edward
$40.00
9780393977073
American Government: Power and Purpose
7
Lowi, Theodore
$1.00
9780072413878
Social Psychology
7
Myers, David
$1.00
9780471429609
Fundamentals of Physics
7
Halliday, 
$65.00
9780618086108
En Bonne Forme: Cassette Program
7
, 
$1.00
9780205307753
Criminology
7
Conklin, John
$1.00
9780471429609
Fundamentals of Physics
7
Halliday, 
$1.00
9780471429647
Fundamentals of physics
7
Halliday, David
$1.00
9780393963380
The Norton Anthology: English Lit
7
, 
$1.00
9780471429609
Fundamentals of Physics
7
Halliday, 
$1.00
9780471429630
Fundamentals of physics
7
Halliday, David
$1.00
9780321277367
Writing fiction :
7
Burroway, Janet.
$1.00
9780393926118
The Norton anthology of short fiction
7
, 
$1.00
9780471429593
Fundamentals of Physics
7
Halliday, David
$1.00
9780131442856
Study Guide: Principles of Microeconomics
7
Baeveridge, Thomas
$1.00
9780471429630
Fundamentals of physics
7
Halliday, David
$1.00
9780471429609
Fundamentals of Physics
7
Halliday, 
$1.00
9780471429609
Fundamentals of Physics
7
Halliday, 
$1.00
9780471429593
Fundamentals of Physics
7
Halliday, David
$1.00
9780471663249
Physics
7
Cutnell, John D.
$55.00
9780131442832
Principles of microeconomics
7
Case, Karl E.
$40.00
9780716761488
Race, class, and gender in the United States :
7th ed.
Rothenberg, Paula
$25.00
9780534553975
Mechanics of materials.
7th ed. /
Gere, James M.
$100.00
9780471663164
Physics
7
Cutnell, 
$50.00
9780471322030
Mathematics :an applied approach
7th ed.
Mizrahi, Abe.
$15.00
9780131442856
Study Guide: Principles of Microeconomics
7
Baeveridge, Thomas
$5.00
9780534491246
Statistics for management and economics
7th. ed.
Keller, Gerald.
$20.00
9780136042587
Introduction to Java Programming
7th
Liang, Y. Daniel
$60.00
9780321527486
The world of the cell
7th ed.
Becker, Kleinsmith, Hardin, Bertoni, 
$80.00
9780131442832
Principles of microeconomics
7
Case, Karl E.
$25.00
9780130415295
Probability & statistics for engineers & scientists
7
Walpole, 
$75.00
9780131442832
Principles of microeconomics
7
Case, Karl E.
$57.00
9780073528052
Sociology :
7th ed.
Schaefer, Richard T.
$1.00
9780131442856
Study Guide: Principles of Microeconomics
7
Baeveridge, Thomas
$5.00
9780471429593
Fundamentals of Physics
7
Halliday, David
$1.00
9780136042587
Introduction to Java Programming
7th
Liang, Y. Daniel
$65.00
9780136147060
Calculus: Early Transcendentals Student Solutions Manual
7
Edwards, 
$1.00
9780073343662
Macroeconomics
7th ed.
Colander, David C.
$50.00
9780132256193
Calculus: Early Transcendentals, Instructor's Edition
7
Edwards, 
$1.00
9780136147060
Calculus: Early Transcendentals Student Solutions Manual
7
Edwards, 
$1.00
9780495187783
Sensation & Perception
7
Goldstein, E. Bruce
$70.00
9780495187783
Sensation & Perception
7
Goldstein, E. Bruce
$49.00
9780393107265
A history of western music
7
Burkholder, J. Peter
$30.00
9780534558109
Sensation and perception
7
Goldstein, E. Bruce.
$55.00
9780073528052
Sociology :
7th ed.
Schaefer, Richard T.
$60.00
9780495438076
Mechanics of Materials
7
Gere, James
$50.00
9780136042587
Introduction to Java Programming
7th
Liang, Y. Daniel
$60.00
9780495603481
Health Psychology: An Introduction to Behavior and Health Study Guide
7
Brannon, Linda
$10.00
9780471663164
Physics
7
Cutnell, 
$50.00
9780321592316
Organic Chemistry
7
Wade, L.G
$150.00
9780321598714
Organic Chemistry: Solution Manual
7
Simek, Jan
$55.00
9780205688074
Reading Culture
7
George, Diana
$25.00
9780805393934
The world of the cell
7th ed.
Becker, Wayne
$60.00
9780495807063
Health Psychology
7th
Brannon, Linda
$40.00
9780130859556
The human challenge
7
Tucker, Mary L.
$10.00
9780071283656
Contemporary Nutrition
7
Wardlaw, Gordon
$20.00
9780130859556
The human challenge
7
Tucker, Mary L.
$55.00
9780534553975
Mechanics of materials.
7th ed. /
Gere, James M.
$80.00
9780470614815
Engineering Mechanics: Dynamics
7th
Meriam, J.J.
$60.00
