9780697336873
Psychology
4
Santrock, John
$1.00
9780201316919
Macroeconomics
4
Parkin, Michael
$15.00
9780133824339
Case Studies in Business Ethics
4
Donaldson, 
$1.00
9780201316919
Macroeconomics
4
Parkin, Michael
$1.00
9780134587530
Study Guide Principles of Microeconomics
4
Beveridge, Beveridge
$1.00
9780195060256
Elements of Literature:  Essay, Fiction, Poetry, Drama, Film
4
Scholes, 
$1.00
9780471129486
The Organic Chem Lab Survival Manual
4
Zubrick, 
$1.00
9780070076990
Pasajes
4
Bretz, Mary
$20.00
9780395733738
The Dolphin
4
Hunt, Douglas
$1.00
9780072927467
Health Psychology
4
Taylor, Shelly
$1.00
9780716724148
Animal Physiology
4
Randall, 
$1.00
9780072426410
Sociology :
4th ed.
Schaefer, Richard T.
$1.00
9780070076976
Pasajes
4
Bretz, 
$1.00
9780534561512
Interpersonal Communications
4
Trenholm, Sarah
$1.00
9780618115020
Entre amis :an interactive approach
4th ed.
Oates, Michael.
$1.00
9780471321859
Microscale Organic Laboratory
4
Mayo, Dana
$1.00
9780471321859
Microscale Organic Laboratory
4
Mayo, Dana
$1.00
9780070076976
Pasajes
4
Bretz, 
$1.00
9780471321859
Microscale Organic Laboratory
4
Mayo, Dana
$1.00
9780716719434
Anatomy and dissection of the fetal pig
4th ed.
Walker, Warren F.
$1.00
9780767411714
The human species: an introduction to biological anthropology
4th ed.
Relethford, John.
$1.00
9780070076976
Pasajes
4
Bretz, 
$1.00
9780716796572
Intro to Practice of Statistics
4
Moore, David
$60.00
9780312397845
Signs of Life in the USA
4
Maasik, Sonia
$1.00
9780471321859
Microscale Organic Laboratory
4
Mayo, Dana
$1.00
9780312115647
Ways of Reading: An Anthology for Writers
4
Bartholomae, 
$1.00
9780618220175
Basic Statistics for the behavioral sciences
4
Heiman, Gary
$1.00
9780471078951
Elementary differential equations and boundary value problems
4th ed.
Boyce, William E.
$10.00
9780314069221
Algebra & Trigonometry
4
Cohen, David
$1.00
9780312400279
The writer's presence :
4th ed.
mcquade, donald
$1.00
9780312397845
Signs of Life in the USA
4
Maasik, Sonia
$1.00
9780312397845
Signs of Life in the USA
4
Maasik, Sonia
$1.00
9780618220182
Basic Statistics: Student Workbook and Study Guide
4
Heiman, Gary
$1.00
9780618115020
Entre amis :an interactive approach
4th ed.
Oates, Michael.
$1.00
9780312259112
Critical thinking, reading, and writing :
4th ed.
, 
$1.00
9780618220175
Basic Statistics for the behavioral sciences
4
Heiman, Gary
$1.00
9780312397845
Signs of Life in the USA
4
Maasik, Sonia
$1.00
9780312397852
Signs of Life in the USA: Readings on Popular Culture for Writers
4
Maasik, Sonia
$1.00
9780697288967
Perspectives on Organizational Communication
4
Daniels, 
$1.00
9780314069221
Algebra & Trigonometry
4
Cohen, David
$1.00
9780130477064
Study guide to General, Org and Bio Chem (McCurry)
4
McMurry, Susan E.
$1.00
9780470004258
Horizontes: Cult. Y Lit.
4
Gilman, 
$1.00
9780314069221
Algebra & Trigonometry
4
Cohen, David
$1.00
9780716728467
Theories of Developmental Psychology
4
Miller, Patricia
$1.00
9780618220175
Basic Statistics for the behavioral sciences
4
Heiman, Gary
$1.00
9780314069221
Algebra & Trigonometry
4
Cohen, David
$1.00
9780838414699
Horizontes :cultura y literatura
4th ed.
Gilman, Graciela Ascarrunz de.
$1.00
9780130104281
Gender roles :a sociological perspective
4th ed.
Lindsey, Linda L.
$1.00
9780471447573
Psychology
4th ed.
Kowalski, Robin M.
$1.00
9780803610125
Psychiatric mental health nursing :concepts of care
4th ed.
Townsend, Mary C.
$1.00
9780324258721
Fundamentals of Financial Management
4
Brigham, Eugene
$1.00
9780716728467
Theories of Developmental Psychology
4
Miller, Patricia
$1.00
9780312397845
Signs of Life in the USA
4
Maasik, Sonia
$1.00
9780321101464
Dialogues: an argument, rhetoric, and reader
4th ed.
, 
$1.00
9780471469681
The Analysis and design of Linear Circuits: Solutions Manual
4
, 
$1.00
9780534617882
Organizational Communication
4
Miller, Katherine
$1.00
9780470003213
Horizontes: Gramatica Y Conversacion
4
Gilman, Graciela
$1.00
9780470003213
Horizontes: Gramatica Y Conversacion
4
Gilman, Graciela
$50.00
9780781758185
Fundamentals Of Nursing: Human Health And Function
4
Craven, Ruth
$20.00
9780130266071
Solutions Manual: Physical Chemistry, 4th Ed
4
Tinoco, 
$1.00
9780131463233
Engineering Mechanics Statics
4
Bedford, Anthony
$1.00
9780716751595
Behavioral Genetics
4
Plomin, Robert
$65.00
9780716751595
Behavioral Genetics
4
Plomin, Robert
$1.00
9780534617882
Organizational Communication
4
Miller, Katherine
$1.00
9780131463233
Engineering Mechanics Statics
4
Bedford, Anthony
$1.00
9780805392968
The Cosmic Perspective: The Solar System
4
Bennett, Jeffrey
$1.00
9780131463233
Engineering Mechanics Statics
4
Bedford, Anthony
$1.00
9780070076976
Pasajes
4
Bretz, 
$1.00
9780070076990
Pasajes
4
Bretz, Mary
$1.00
9780131287341
Engineering Mechanics: Statistics
4
Bedford, 
$1.00
9780131463233
Engineering Mechanics Statics
4
Bedford, Anthony
$1.00
9780721697734
Physical examination & health assessment
4th ed.
Jarvis, Carolyn.
$25.00
9780131982291
Cognition: International Edition
4
Ashcraft, Mark
$40.00
9780072977479
Business statistics in practice
4th ed.
Bowerman, Bruce L.
$40.00
9780131898691
Core questions in philosophy :
4th ed.
Sober, Elliott.
$20.00
9780072818895
ComposiciÃ¢on :proceso y sÃ¢intesis
4. ed.
Valdes, 
$10.00
9780073330631
Traditions and Encounters
4
Bentley, Jerry
$20.00
9780815332183
Molecular Biology of the Cell
4
, 
$50.00
9780072291537
A first look at communication theory
4th ed.
Griffin, Emory A.
$1.00
9780815146568
Study Guide to Fundamentals of Nursing Concepts, process, and practice
4
Ochs, 
$1.00
9780470004258
Horizontes: Cult. Y Lit.
4
Gilman, 
$10.00
9780130887047
Educational psychology :developing learners
4th ed., Multim
Ormrod, Jeanne Ellis.
$30.00
9780131463233
Engineering Mechanics Statics
4
Bedford, Anthony
$1.00
9780199271832
Elements of physical chemistry.
4th ed. /
Atkins, P. W.
$77.00
9780131925380
Development across the life span
4th ed.
Feldman, Robert S.
$5.00
9780618824311
Study Guide: Essentials of Psychology
4
Kelly, Henry
$30.00
9780131898691
Core questions in philosophy :
4th ed.
Sober, Elliott.
$50.00
9780618713127
Essentials of psychology
4th ed.
Bernstein, Douglas.
$36.00
9780697336873
Psychology
4
Santrock, John
$1.00
9780716731931
Elements of Physical Chemistry - solutions manual
4
Trapp, Charles
$15.00
9780073330631
Traditions and Encounters
4
Bentley, Jerry
$50.00
9780471730514
Financial accounting
4th ed.
Kimmel, Paul D.
$65.00
9780130418425
Fundamentals of general, organic, and biological chemistry
4th ed.
McMurry, John.
$10.00
9780130477071
Study Guide: Fundamentals of General, Organic and Biological Chemistry
4th ed.
McMurry, Susan
$15.00
9780781758185
Fundamentals Of Nursing: Human Health And Function
4
Craven, Ruth
$40.00
9780471730514
Financial accounting
4th ed.
Kimmel, Paul D.
$87.00
9780471750819
Financial accounting : tools for business decision making
4th ed.
Kimmel, Paul D.
$38.00
9780618713127
Essentials of psychology
4th ed.
Bernstein, Douglas.
$40.00
9780618713127
Essentials of psychology
4th ed.
Bernstein, Douglas.
$35.00
9780618713127
Essentials of psychology
4th ed.
Bernstein, Douglas.
$36.00
9780618824311
Study Guide: Essentials of Psychology
4
Kelly, Henry
$20.00
9780471730514
Financial accounting
4th ed.
Kimmel, Paul D.
$75.00
9780826412676
Toms, coons, mulattoes, mammies, and bucks : an interpretive history of Blacks in American films
4th ed.
Bogle, Donald.
$30.00
9781413010121
Writing analytically
4th ed.
Rosenwasser, David.
$20.00
9780618713127
Essentials of psychology
4th ed.
Bernstein, Douglas.
$30.00
9780534617882
Organizational Communication
4
Miller, Katherine
$10.00
9780130418425
Fundamentals of general, organic, and biological chemistry
4th ed.
McMurry, John.
$11.00
9780803610125
Psychiatric mental health nursing :concepts of care
4th ed.
Townsend, Mary C.
$15.00
9780495016311
Finite Mathematics and Applied Calculus
4
Waner, 
$80.00
9780205654147
A history of the holocaust
4
Botwinick, Rita
$50.00
9780495384274
Finite Mathematics and Applied Calculus
4
Waner , Stefan
$185.00
9780393928976
Essentials of international relations
4th ed.
Mingst, Karen A.
$20.00
9780073512280
Women's Voices/Feminist Visions
4
Shaw, 
$30.00
9780073265339
The Past in Perspective: An Introduction to Human Prehistory
4
Feder, Kenneth L.
$15.00
9780495384274
Finite Mathematics and Applied Calculus
4
Waner , Stefan
$1.00
9780495316640
Finite Mathematics + Applied Calculus
4
Waner, 
$60.00
9780495384274
Finite Mathematics and Applied Calculus
4
Waner , Stefan
$100.00
9780205309023
The Elements of Style
4
Strunk, William
$10.00
9780495384274
Finite Mathematics and Applied Calculus
4
Waner , Stefan
$1.00
9780205759576
Social Problems
4
Macionis, John
$60.00
9780123744937
Computer Organization and Design: The Hardware / Software Interface
4
Patterson, David
$89.00
9780137915750
Cognitive Development
4
Flavell, John
$30.00
9780980232714
Introduction to Linear Algebra
4
Strang, Gilbert
$100.00
9781428231238
La France Contemporaine
4
, 
$90.00
9780787987992
Reframing organizations : artistry, choice, and leadership
4th ed.
Bolman, Lee G.
$45.00
9780131886766
A Framework for Human Resources Management
4
Dessler, Gary
$25.00
9780262693639
Taxing Ourselves
4
Slemrod, Joel
$25.00
9780781722735
Fundamentals of Nursing
4
Taylor, Carol
$20.00
9780073531021
Introducing Cultural Anthropology
4
Lenkeit, Robert
$10.00
9780205759576
Social Problems
4
Macionis, John
$59.00
9780072828436
Student Solutions Manual for use with Chemistry
4th
Langley and Silberberg, 
$1.00
9780198062288
Principles of Signal Processing and Linear Systems
4th
Lathe, B.P. 
$1.00
9780781769600
Biochemistry
4th ed.
Champe, Pamela C.
$50.00
9780470003213
Horizontes: Gramatica Y Conversacion
4
Gilman, Graciela
$1.00
9780070076976
Pasajes
4
Bretz, 
$1.00
9780070076990
Pasajes
4
Bretz, Mary
$1.00
9780470004258
Horizontes: Cult. Y Lit.
4
Gilman, 
$1.00
9780070076990
Pasajes
4
Bretz, Mary
$1.00
9780072492958
An Appreciation of Music
4
Kamien, Roger
$1.00
9780312397845
Signs of Life in the USA
4
Maasik, Sonia
$1.00
9780470003213
Horizontes: Gramatica Y Conversacion
4
Gilman, Graciela
$1.00
9780618123414
Physical Chemistry
4
Laidler, Keith
$110.00
9780123744937
Computer Organization and Design: The Hardware / Software Interface
4
Patterson, David
$55.00
9780123744937
Computer Organization and Design: The Hardware / Software Interface
4
Patterson, David
$49.00
9780123747501
Computer Organization and Design
4
, 
$50.00
9780130652430
Applied Partial Differential Equations with Fourier Series and Boundary Value Problems
4
Haberman, Richard
$50.00
9780879016449
Psychology
4
Myers, David
$1.00
9780879016456
Study Guide
4
Straub, Richard
$1.00
9780534198923
Psychology Applied to Modern Life, Study Guide
4
Weiten, 
$1.00
9780395779842
Study Guide Psychology
4
Allman, 
$1.00
9780395770719
Psychology
4
Bernstein, 
$1.00
9780879016456
Study Guide
4
Straub, Richard
$1.00
9780395770719
Psychology
4
Bernstein, 
$1.00
9780201524420
Turbo Pascal
4
Koffman, Elliot
$1.00
9780395770719
Psychology
4
Bernstein, 
$1.00
9780673524416
International Politics
4
Art, 
$32.00
9780201524420
Turbo Pascal
4
Koffman, Elliot
$1.00
9780395770719
Psychology
4
Bernstein, 
$1.00
9781566430241
American Public Policy: Promise and Performance
4
Peters, 
$1.00
9780314068118
Study Guide to Statistics for the Behavioral Sciences
4
Gravetter, Fredrick
$1.00
9780136538257
Society, The Basics
4
Macionis, John
$1.00
9780934034296
English Grammar for Students of French
4
Morton, 
$1.00
9780716723851
Cognitive Psychology and Its Implications
4
Anderson, John
$1.00
9780133824339
Case Studies in Business Ethics
4
Donaldson, 
$1.00
9780201327632
Macroeconomics, Study Guide
4
Parkin, 
$1.00
9780133824339
Case Studies in Business Ethics
4
Donaldson, 
$1.00
9780314068064
Statistics of the Behavioral Sciences
4
Gravetter, Frederick
$1.00
9780395770719
Psychology
4
Bernstein, 
$1.00
9780312115647
Ways of Reading: An Anthology for Writers
4
Bartholomae, 
$1.00
9780195060256
Elements of Literature:  Essay, Fiction, Poetry, Drama, Film
4
Scholes, 
$1.00
9780534207182
The Buddhist Religion
4
Robinson, 
$1.00
9780136538257
Society, The Basics
4
Macionis, John
$1.00
9780133824339
Case Studies in Business Ethics
4
Donaldson, 
$1.00
9780534198909
Psychology Applied to Modern Life
4
Weiten, Wayne
$1.00
9780120991938
Handbook of Aging and the Social Sciences
4
Binstock, Robert
$1.00
9780521645874
The New Solar System
4
Beatty, J. Kelly
$15.00
9780534578169
Essentials of Physical Anthropology
4
 Jurmain, Robert
$1.00
9780072318593
Essentials of Investments
4
Bodie,  Zvi
$50.00
9780205298563
The Allyn & Bacon Handbook
4
Rosen, Leonard
$1.00
9780205265626
Women, Men, and Society
4
Renzetti, Claire
$1.00
9780471321859
Microscale Organic Laboratory
4
Mayo, Dana
$1.00
9780013040040
Spanish Composition Through Literature
4
Ayllon, Candido
$1.00
9780072492958
An Appreciation of Music
4
Kamien, Roger
$1.00
9780314069221
Algebra & Trigonometry
4
Cohen, David
$47.00
9780767411295
American Voices: Community and Culture
4
IaGuardia, Dolores
$1.00
9780314069221
Algebra & Trigonometry
4
Cohen, David
$1.00
9780314069221
Algebra & Trigonometry
4
Cohen, David
$1.00
9780314069221
Algebra & Trigonometry
4
Cohen, David
$1.00
9788120328068
Market-Based Management: Strategies for Growing Customer Value and Profitability
4
, 
$1.00
9780534368500
Health Psychology
4
Brannon, Linda
$1.00
9780324258721
Fundamentals of Financial Management
4
Brigham, Eugene
$1.00
9780314069221
Algebra & Trigonometry
4
Cohen, David
$1.00
9780072492958
An Appreciation of Music
4
Kamien, Roger
$1.00
9780324258721
Fundamentals of Financial Management
4
Brigham, Eugene
$1.00
9780324258707
Fundamentals of Financial Management
4
Brigham, Eugene
$1.00
9780072492958
An Appreciation of Music
4
Kamien, Roger
$1.00
9780471447573
Psychology
4th ed.
Kowalski, Robin M.
$1.00
9780324258721
Fundamentals of Financial Management
4
Brigham, Eugene
$1.00
9780805392838
The Cosmic Perspective
4
Bennett, Jeffrey
$35.00
9780471447573
Psychology
4th ed.
Kowalski, Robin M.
$1.00
9780471447573
Psychology
4th ed.
Kowalski, Robin M.
$1.00
9780674011632
The Harvard dictionary of music
4th ed.
, 
$30.00
9780534622459
Children's thinking :
4th ed.
Bjorklund, David F.
$60.00
9780471730514
Financial accounting
4th ed.
Kimmel, Paul D.
$75.00
9780534622459
Children's thinking :
4th ed.
Bjorklund, David F.
$55.00
9780262693639
Taxing Ourselves
4
Slemrod, Joel
$20.00
9780716748786
Inorganic chemistry.
4th ed. /
, 
$40.00
9780195685237
Inorganic Chemistry
4
Atkins, Shriver, 
$40.00
9780205488087
Cultural anthropology
4th ed.
Miller, Barbara D.
$40.00
9780838577011
Principles of Neural Science
4
Kandel, Eric
$89.00
9780131898691
Core questions in philosophy :
4th ed.
Sober, Elliott.
$20.00
9780618713127
Essentials of psychology
4th ed.
Bernstein, Douglas.
$35.00
9781577662709
Building communication theory
4th ed.
Infante, Dominic A.
$1.00
9780618713127
Essentials of psychology
4th ed.
Bernstein, Douglas.
$49.00
9780137915750
Cognitive Development
4
Flavell, John
$48.00
9780838577011
Principles of Neural Science
4
Kandel, Eric
$80.00
9780137915750
Cognitive Development
4
Flavell, John
$46.00
9780393178494
Essentials of International Relations
4
Mingst, Karen
$30.00
9780495506270
Abnormal child psychology
4th ed.
Mash, Eric J.
$120.00
9780716770534
Inorganic Chemistry (Solutions Manual)
4
Shriver & Atkins, 
$25.00
9780618713127
Essentials of psychology
4th ed.
Bernstein, Douglas.
$18.00
9780716748786
Inorganic chemistry.
4th ed. /
, 
$65.00
9780618123421
Physical Chemistry Solutions Manual
4
Ramachandran, B. Ramu
$25.00
9780716770534
Inorganic Chemistry (Solutions Manual)
4
Shriver & Atkins, 
$20.00
9780618403417
Readings in Social Psychology
4
Fein, Steven
$1.00
9780130266071
Solutions Manual: Physical Chemistry, 4th Ed
4
Tinoco, 
$1.00
9780495019480
Finite Mathematics and Applied Calculus
4
Waner, 
$56.00
9780500202920
Greek Art
4
Boardman, John
$7.00
9780618403417
Readings in Social Psychology
4
Fein, Steven
$1.00
9780030010682
Introduction to General, Organic & Biochemistry
4
Bettelheim, 
$9.00
9780030010729
Study Guide to Accompany Introduction to General, Organic & Biochemistry
4
Bettelheim, 
$6.00
9780495384274
Finite Mathematics and Applied Calculus
4
Waner , Stefan
$125.00
9780393969085
A New Approach to Sight Singing
4
Berkowitz, 
$20.00
9780471742852
Machine Component Design
4
Juvinall, Robert
$70.00
9780495384274
Finite Mathematics and Applied Calculus
4
Waner , Stefan
$65.00
9780838577011
Principles of Neural Science
4
Kandel, Eric
$75.00
9781405111171
Ecology :from individuals to ecosystems
4th ed.
Begon, Michael.
$80.00
9780980232714
Introduction to Linear Algebra
4
Strang, Gilbert
$80.00
9780205655199
The Longman Anthology of British Literature
4
Damrosch, 
$30.00
9780495384274
Finite Mathematics and Applied Calculus
4
Waner , Stefan
$65.00
9780495016311
Finite Mathematics and Applied Calculus
4
Waner, 
$45.00
9780205790173
Primate Behavioral Ecology
4
Strier, Karen
$25.00
9780538736237
Understanding Food
4
Brown, Amy
$85.00
9780538497954
Understanding Food: Lab Manual
4
Brown, Amy
$15.00
9780324660548
Introductory econometrics : a modern approach
4th ed.
Wooldridge, Jeffrey M.
$10.00
9780979671029
Solid Footing
4
Wiegand, Dan
$20.00
9780618123414
Physical Chemistry
4
Laidler, Keith
$140.00
9780618123414
Physical Chemistry
4
Laidler, Keith
$110.00
9780471432999
The analysis and design of linear circuits: laplace early
4th ed.
Thomas, Roland E.
$40.00
9780321816191
A Friendly Introduction to Number Theory
4
Silverman, Joeseph
$100.00
9780470003213
Horizontes: Gramatica Y Conversacion
4
Gilman, Graciela
$40.00
9780471730514
Financial accounting
4th ed.
Kimmel, Paul D.
$25.00
9780470003213
Horizontes: Gramatica Y Conversacion
4
Gilman, Graciela
$1.00
9780470004258
Horizontes: Cult. Y Lit.
4
Gilman, 
$1.00
9780070076976
Pasajes
4
Bretz, 
$1.00
9780538736176
Nutrition Through The Life Cycle
4
Brown, Judith
$50.00
9780618123414
Physical Chemistry
4
Laidler, Keith
$100.00
9781118061602
Fundamentals of Materials Science and Engineering
4
Callister, William
$125.00
9780131863897
Digital design :principles and practices
4th ed.
Wakerly, John F.
$40.00
9781259213601
Fundamentals of Thermal-Fluid Sciences
4
Cengel, Yunus A.
$60.00
9780201524420
Turbo Pascal
4
Koffman, Elliot
$1.00
9780697336873
Psychology
4
Santrock, John
$1.00
9780534198909
Psychology Applied to Modern Life
4
Weiten, Wayne
$1.00
9780395770719
Psychology
4
Bernstein, 
$1.00
9780195060256
Elements of Literature:  Essay, Fiction, Poetry, Drama, Film
4
Scholes, 
$1.00
9780136538257
Society, The Basics
4
Macionis, John
$1.00
