9780030256172
Coursebook to Accompany Economics; Private and Public Choice
9
Sobel, 
$1.00
9780030256134
Coursebook to accompany Macroeconomics
9
Sobel, 
$1.00
9780673525109
Conformity and Conflict
9
Spradley, 
$1.00
9780030212895
Macroeconomics: Private and Public Choice
9
Gwartney, James
$1.00
9780030314612
Fundamentals of Financial Management
9
Brigham, Eugene
$1.00
9780137915347
Cultural Anthropolgy
9
Ember, Carol
$1.00
9780030212895
Macroeconomics: Private and Public Choice
9
Gwartney, James
$1.00
9780030212895
Macroeconomics: Private and Public Choice
9
Gwartney, James
$1.00
9780697362155
Child development
9
Santrock, John W.
$1.00
9780673525109
Conformity and Conflict
9
Spradley, 
$1.00
9780072839234
International Politics on the World Stage
9
Rourke, John
$1.00
9780393978797
The enjoyment of music :
9th ed., shorte
Machlis, Joseph
$1.00
9780393978797
The enjoyment of music :
9th ed., shorte
Machlis, Joseph
$1.00
9780393978797
The enjoyment of music :
9th ed., shorte
Machlis, Joseph
$1.00
9780130977632
Sociology
9
Macionis, John J.
$1.00
9780321311535
Modern Labor Economics
9
, 
$1.00
9780673525109
Conformity and Conflict
9
Spradley, 
$1.00
9780393927146
American Government
9
Lowi, Theodore J
$50.00
9780205464401
Criminology
9th ed.
Conklin, John E.
$20.00
9780070667020
Fundamentals of Corporate Finance
9
Ross, Stephen
$45.00
9780495596523
Understanding Statistics in the Behavioral Sciences
9
Pagano, 
$60.00
9780495596523
Understanding Statistics in the Behavioral Sciences
9
Pagano, 
$124.00
9781429225342
Psychology Study Guide
9
Straub, Richard
$25.00
9780495553397
Psychology applied to modern life
9
Weiten, 
$70.00
9780205467242
Physiology of behavior
9th ed.
Carlson, Neil R.
$60.00
9780470182048
Calculus
9th
Anton, Howard
$100.00
9780205467242
Physiology of behavior
9th ed.
Carlson, Neil R.
$30.00
9780470547892
Fundamentals of Physics
9
Halliday, 
$70.00
9780878933846
Developmental Biology
9
Gilbert, Scott
$95.00
9780470418147
Calculus
9th
Anton, 
$50.00
9780321739759
Biology
9
Campbell, 
$115.00
9780470547892
Fundamentals of Physics
9
Halliday, 
$70.00
9780470379585
Calculus Student Solutions Manual
9
, 
$30.00
9780470182048
Calculus
9th
Anton, Howard
$20.00
9780321629920
Study Guide for Biology
9
, 
$20.00
9780077353643
Study Guide for use with Sociology A Brief Introduction
9
Schaefer, Richard
$6.00
9780077350031
Seeley's Anatomy & Physiology
9
, 
$50.00
9780470183458
Calculus
9th
Anton, Bivens, Howard
$80.00
9780470418147
Calculus
9th
Anton, 
$70.00
9780470418147
Calculus
9th
Anton, 
$75.00
9780321558237
Biology
9
Campbell, 
$100.00
9780470183465
Calculus: Multivariable
9th
Anton, Howard
$75.00
9780321558237
Biology
9
Campbell, 
$100.00
9780470182048
Calculus
9th
Anton, Howard
$100.00
9780470183458
Calculus
9th
Anton, Bivens, Howard
$75.00
9780073265322
Student CD-Rom Guidebook for The Art of Public Speaking
9th
Lucas, Stephen
$1.00
9780470379646
Calculus Solutions Manual
9
Anton, Howard
$15.00
9780321558237
Biology
9
Campbell, 
$60.00
9780470183458
Calculus
9th
Anton, Bivens, Howard
$64.00
9780470183458
Calculus
9th
Anton, Bivens, Howard
$75.00
9780878933846
Developmental Biology
9
Gilbert, Scott
$90.00
9780470183465
Calculus: Multivariable
9th
Anton, Howard
$50.00
9780684829265
Down to Earth Sociology, Introductory Readings
9
Henslin, 
$1.00
9780673525109
Conformity and Conflict
9
Spradley, 
$1.00
9780137915347
Cultural Anthropolgy
9
Ember, Carol
$1.00
9780673525109
Conformity and Conflict
9
Spradley, 
$1.00
9780137915347
Cultural Anthropolgy
9
Ember, Carol
$1.00
9780030314612
Fundamentals of Financial Management
9
Brigham, Eugene
$1.00
9780312391096
Subjects/Strategies: A Writer's Reader
9
Eschholz, Paul
$1.00
9780030212895
Macroeconomics: Private and Public Choice
9
Gwartney, James
$1.00
9780312404314
Patterns for college writing :a rhetorical reader and guide
9
, 
$1.00
9780312404314
Patterns for college writing :a rhetorical reader and guide
9
, 
$1.00
9780321044624
Contemporary society :an introduction to social science
9
Perry, John A.
$1.00
9780073197395
Violence and Terror
9
Badey, Thomas
$1.00
9780471743194
Dalrymple's sales management
9
Cron, William L.
$1.00
9780137915347
Cultural Anthropolgy
9
Ember, Carol
$1.00
9780324304015
Advanced accounting
9e [ed.].
Fischer, Paul M.
$2.00
9780073041919
Operations management
9th ed.
Stevenson, William J.
$60.00
9781429225342
Psychology Study Guide
9
Straub, Richard
$35.00
9780205464401
Criminology
9th ed.
Conklin, John E.
$20.00
9780470398753
Calculus: Early Transcendentals, International Edition
9
Anton, Howard
$95.00
9780073528267
Sociology
9
Schaefer, Richard
$60.00
9780470183458
Calculus
9th
Anton, Bivens, Howard
$115.00
9780470418147
Calculus
9th
Anton, 
$60.00
9781429225342
Psychology Study Guide
9
Straub, Richard
$20.00
9780470183458
Calculus
9th
Anton, Bivens, Howard
$120.00
9780470183458
Calculus
9th
Anton, Bivens, Howard
$100.00
9780470183458
Calculus
9th
Anton, Bivens, Howard
$100.00
9780030256172
Coursebook to Accompany Economics; Private and Public Choice
9
Sobel, 
$1.00
9780030212895
Macroeconomics: Private and Public Choice
9
Gwartney, James
$1.00
9780470379646
Calculus Solutions Manual
9
Anton, Howard
$10.00
